{
  "stats": {
    "suites": 1,
    "tests": 4,
    "passes": 3,
    "pending": 0,
    "failures": 1,
    "start": "2019-02-04T11:38:48.655Z",
    "end": "2019-02-04T11:39:15.107Z",
    "duration": 26452,
    "testsRegistered": 4,
    "passPercent": 75,
    "pendingPercent": 0,
    "other": 0,
    "hasOther": false,
    "skipped": 0,
    "hasSkipped": false,
    "passPercentClass": "warning",
    "pendingPercentClass": "danger"
  },
  "suites": {
    "uuid": "f855e3b6-016e-4497-8f84-d0850372379e",
    "title": "",
    "fullFile": "",
    "file": "",
    "beforeHooks": [],
    "afterHooks": [],
    "tests": [],
    "suites": [
      {
        "uuid": "affc3131-8ccb-4d8a-9df0-84337f4c3b50",
        "title": "Documents",
        "fullFile": "",
        "file": "",
        "beforeHooks": [],
        "afterHooks": [],
        "tests": [
          {
            "title": "page loads correctly",
            "fullTitle": "Documents page loads correctly",
            "duration": 3284,
            "state": "passed",
            "speed": "slow",
            "pass": true,
            "fail": false,
            "pending": false,
            "code": "cy.get('h2').contains('Documents');",
            "err": {},
            "isRoot": false,
            "uuid": "d1292bf5-149e-4a62-947c-93dbba31e6f4",
            "isHook": false,
            "skipped": false
          },
          {
            "title": "upload document modal drop down data loads",
            "fullTitle": "Documents upload document modal drop down data loads",
            "duration": 12490,
            "state": "passed",
            "speed": "slow",
            "pass": true,
            "fail": false,
            "pending": false,
            "code": "cy.get('[name=\"document-upload-button\"]').click().get('[name=\"document-upload-modal-contractor__select__container\"]').find('.rs__value-container').click().get('#document-upload-modal-uploadfile-IconStyled').click().get('[name=\"document-upload-modal-contractor__select__container\"]').find('.rs__value-container').click().get('.rs__menu').find('.rs__option', {\n  timeout: 20000\n}).get('#document-upload-modal-uploadfile-IconStyled').click().get('[name=\"document-upload-modal-ewc__select__container\"]').find('.rs__value-container').click().get('#document-upload-modal-uploadfile-IconStyled').click().get('[name=\"document-upload-modal-ewc__select__container\"]').find('.rs__value-container').click().get('.rs__menu').find('.rs__option', {\n  timeout: 20000\n}).get('#document-upload-modal-uploadfile-IconStyled').click().get('[name=\"document-upload-modal-wastein__select__container\"]').find('.rs__value-container').click().get('#document-upload-modal-uploadfile-IconStyled').click().get('[name=\"document-upload-modal-wastein__select__container\"]').find('.rs__value-container').click().get('.rs__menu').find('.rs__option', {\n  timeout: 20000\n}).get('#document-upload-modal-uploadfile-IconStyled').click().get('[name=\"document-upload-modal-wasteout__select__container\"]').find('.rs__value-container').click().get('#document-upload-modal-uploadfile-IconStyled').click().get('[name=\"document-upload-modal-wasteout__select__container\"]').find('.rs__value-container').click().get('.rs__menu').find('.rs__option', {\n  timeout: 20000\n});",
            "err": {},
            "isRoot": false,
            "uuid": "716664a3-e2a0-4917-8312-5fcbb22f26ad",
            "isHook": false,
            "skipped": false
          },
          {
            "title": "correct document types in list",
            "fullTitle": "Documents correct document types in list",
            "duration": 2419,
            "state": "passed",
            "speed": "slow",
            "pass": true,
            "fail": false,
            "pending": false,
            "code": "var docTypeOptionsExpected = ['Part A', 'Part B', 'Part C', 'Part D', 'Part E'];\nvar docTypeOptionsActual = [];\ncy.get('[name=\"document-upload-button\"]').click().get('[name=\"document-upload-modal-documenttype__select__container\"]').find('.rs__value-container').click().get('#document-upload-modal-uploadfile-IconStyled').click().get('[name=\"document-upload-modal-documenttype__select__container\"]').find('.rs__value-container').click().get('.rs__menu').find('.rs__option', {\n  timeout: 20000\n}).each(function (o) {\n  return docTypeOptionsActual.push(o.text());\n}).then(function () {\n  return assert(docTypeOptionsActual.toString() === docTypeOptionsExpected.toString());\n});",
            "err": {},
            "isRoot": false,
            "uuid": "fcc9f583-a728-4ace-b903-fe957096cf68",
            "isHook": false,
            "skipped": false
          },
          {
            "title": "checking Is Seasonal changes Collection Data selector to Start Date and End Date selectors",
            "fullTitle": "Documents checking Is Seasonal changes Collection Data selector to Start Date and End Date selectors",
            "duration": 6491,
            "state": "failed",
            "pass": false,
            "fail": true,
            "pending": false,
            "code": "cy.get('[name=\"document-upload-button\"]').click().get('[name=\"document-upload-modal-collectionDate-input\"]').get('#document-upload-modal-seasonalContainer').click().get('[name=\"document-upload-modal-startDate-input\"]').get('[name=\"document-upload-modal-endDate-input\"]');",
            "err": {
              "message": "CypressError: Timed out retrying: Expected to find element: '[name=\"document-upload-modal-collectionDate-input\"]', but never found it.",
              "estack": "CypressError: Timed out retrying: Expected to find element: '[name=\"document-upload-modal-collectionDate-input\"]', but never found it.\n    at Object.cypressErr (https://qa-rio.dittosustainability.ai/__cypress/runner/cypress_runner.js:63758:11)\n    at Object.throwErr (https://qa-rio.dittosustainability.ai/__cypress/runner/cypress_runner.js:63723:18)\n    at Object.throwErrByPath (https://qa-rio.dittosustainability.ai/__cypress/runner/cypress_runner.js:63750:17)\n    at retry (https://qa-rio.dittosustainability.ai/__cypress/runner/cypress_runner.js:57328:16)\n    at https://qa-rio.dittosustainability.ai/__cypress/runner/cypress_runner.js:49439:18\n    at tryCatcher (https://qa-rio.dittosustainability.ai/__cypress/runner/cypress_runner.js:125045:23)\n    at Promise._settlePromiseFromHandler (https://qa-rio.dittosustainability.ai/__cypress/runner/cypress_runner.js:123063:31)\n    at Promise._settlePromise (https://qa-rio.dittosustainability.ai/__cypress/runner/cypress_runner.js:123120:18)\n    at Promise._settlePromise0 (https://qa-rio.dittosustainability.ai/__cypress/runner/cypress_runner.js:123165:10)\n    at Promise._settlePromises (https://qa-rio.dittosustainability.ai/__cypress/runner/cypress_runner.js:123240:18)\n    at Async._drainQueue (https://qa-rio.dittosustainability.ai/__cypress/runner/cypress_runner.js:119969:16)\n    at Async._drainQueues (https://qa-rio.dittosustainability.ai/__cypress/runner/cypress_runner.js:119979:10)\n    at Async.drainQueues (https://qa-rio.dittosustainability.ai/__cypress/runner/cypress_runner.js:119853:14)"
            },
            "isRoot": false,
            "uuid": "4015750c-92f5-4f32-87a7-c2ae397af3e5",
            "isHook": false,
            "skipped": false
          }
        ],
        "suites": [],
        "passes": [
          "d1292bf5-149e-4a62-947c-93dbba31e6f4",
          "716664a3-e2a0-4917-8312-5fcbb22f26ad",
          "fcc9f583-a728-4ace-b903-fe957096cf68"
        ],
        "failures": [
          "4015750c-92f5-4f32-87a7-c2ae397af3e5"
        ],
        "pending": [],
        "skipped": [],
        "duration": 24684,
        "root": false,
        "rootEmpty": false,
        "_timeout": 2000
      }
    ],
    "passes": [],
    "failures": [],
    "pending": [],
    "skipped": [],
    "duration": 0,
    "root": true,
    "rootEmpty": true,
    "_timeout": 2000
  },
  "copyrightYear": 2019
}