{
  "stats": {
    "suites": 1,
    "tests": 2,
    "passes": 2,
    "pending": 0,
    "failures": 0,
    "start": "2019-01-18T10:46:39.903Z",
    "end": "2019-01-18T10:46:50.601Z",
    "duration": 10698,
    "testsRegistered": 2,
    "passPercent": 100,
    "pendingPercent": 0,
    "other": 0,
    "hasOther": false,
    "skipped": 0,
    "hasSkipped": false,
    "passPercentClass": "success",
    "pendingPercentClass": "danger"
  },
  "suites": {
    "uuid": "61743ff5-f5f3-4d50-9f71-f0566691a938",
    "title": "",
    "fullFile": "",
    "file": "",
    "beforeHooks": [],
    "afterHooks": [],
    "tests": [],
    "suites": [
      {
        "uuid": "9b3c6080-dff1-41d6-b9d8-e73fcee47329",
        "title": "Reporting",
        "fullFile": "",
        "file": "",
        "beforeHooks": [],
        "afterHooks": [],
        "tests": [
          {
            "title": "page loads correctly",
            "fullTitle": "Reporting page loads correctly",
            "duration": 5577,
            "state": "passed",
            "speed": "slow",
            "pass": true,
            "fail": false,
            "pending": false,
            "code": "cy.get('[name^=\"reporting-menu\"]', {\n  timeout: 15000\n});",
            "err": {},
            "isRoot": false,
            "uuid": "b190e206-67d3-4f8c-9d2d-2118cd831468",
            "isHook": false,
            "skipped": false
          },
          {
            "title": "click a report and check that it loads",
            "fullTitle": "Reporting click a report and check that it loads",
            "duration": 2926,
            "state": "passed",
            "speed": "slow",
            "pass": true,
            "fail": false,
            "pending": false,
            "code": "cy.get('[name=\"reporting-menu-Container\"]', {\n  timeout: 15000\n}).find('div').next().first().click().get('[name=\"dundasBI\"]').find('iframe', {\n  timeout: 15000\n});",
            "err": {},
            "isRoot": false,
            "uuid": "c53cf82b-4a07-4c45-a649-81238ba91ab5",
            "isHook": false,
            "skipped": false
          }
        ],
        "suites": [],
        "passes": [
          "b190e206-67d3-4f8c-9d2d-2118cd831468",
          "c53cf82b-4a07-4c45-a649-81238ba91ab5"
        ],
        "failures": [],
        "pending": [],
        "skipped": [],
        "duration": 8503,
        "root": false,
        "rootEmpty": false,
        "_timeout": 2000
      }
    ],
    "passes": [],
    "failures": [],
    "pending": [],
    "skipped": [],
    "duration": 0,
    "root": true,
    "rootEmpty": true,
    "_timeout": 2000
  },
  "copyrightYear": 2019
}